20190503 12:21:10.10 Started Loading Process  
        1 file(s) copied.
20190503 12:21:10.14  Loading started ....... 
20190503 12:21:10.15 1_Create_Eliprio_Source_Tables is in progress... 
20190503 12:21:10.32 SUCCESSFULLY executed 1_Create_Eliprio_Source_Tables 
20190503 12:21:10.32 2_Load_Eliprio_Source_Tables_From_CSV is in progress... 
20190503 12:21:10.75 SUCCESSFULLY executed 2_Load_Eliprio_Source_Tables_From_CSV 
20190503 12:21:10.75 3_Load_Eliprio_Source_Tables_From_Staging is in progress... 
20190503 12:21:10.96 SUCCESSFULLY executed 3_Load_Eliprio_Source_Tables_From_Staging 
20190503 12:21:10.97 4_DQ_REPORT is in progress... 
20190503 12:21:32.14 SUCCESSFULLY executed 4_DQ_REPORT 
