﻿201409,407181,Y,Y,N
201508,271750,Y,Y,N
200707,279383,Y,N,N
200601,252577,Y,N,N
200907,271750,Y,N,N
201407,335488,Y,Y,N
201507,279383,Y,N,N
201204,279383,Y,N,N
200609,271750,Y,N,N
201310,348612,Y,Y,N
200901,279383,Y,N,N
201507,238914,Y,N,N
201008,385210,Y,Y,N
200904,348612,Y,Y,N
201007,252577,Y,N,N
201107,279383,Y,N,N
201309,279383,Y,N,N
201412,280265,Y,Y,N
201409,261633,Y,Y,N
201311,279383,Y,N,N
201404,385210,Y,Y,N
201512,252577,Y,N,N
201208,348612,Y,Y,N
201212,348612,Y,Y,N
201211,348612,Y,Y,N
201510,279383,Y,N,N
201310,271750,Y,N,N
201301,385210,Y,Y,N
201110,407181,Y,N,N
200801,279383,Y,N,N
200702,348612,Y,N,N
201206,279383,Y,N,N
200910,252577,Y,N,N
200906,279383,Y,N,N
201409,279383,Y,N,N
201209,407181,Y,N,N
201207,280265,Y,N,N
201001,348612,Y,N,N
201106,238914,Y,Y,N
201411,238914,Y,N,N
200611,385210,Y,N,N
200910,385210,Y,Y,N
201002,252577,Y,N,N
200802,279383,Y,N,N
201204,280265,Y,N,N
200707,385210,Y,N,N
201506,279383,Y,N,N
200912,348612,Y,N,N
200903,385210,Y,N,N
201204,252577,Y,Y,N
201212,279383,Y,N,N
201201,369450,Y,Y,N
201412,252577,Y,Y,N
201108,261633,Y,N,N
201307,279383,Y,N,N
201510,286757,Y,Y,N
200808,279383,Y,N,N
201502,279383,Y,N,N
201211,279383,Y,N,N
201511,238914,Y,N,N
201004,369450,Y,N,N
201002,385210,Y,Y,N
200612,252577,Y,N,N
200710,348612,Y,N,N
201210,261633,Y,Y,N
201010,348612,Y,Y,N
201211,407181,Y,N,N
201312,348612,Y,Y,N
201007,369450,Y,N,N
200809,348612,Y,N,N
201304,271750,Y,N,N
201204,407181,Y,N,N
201204,385210,Y,Y,N
201310,261633,Y,Y,N
201510,407181,Y,Y,N
201308,335488,Y,Y,N
201507,407181,Y,Y,N
200809,261633,Y,N,N
201005,238914,Y,N,N
201307,407181,Y,N,N
201210,335488,Y,Y,N
201110,238914,Y,Y,N
201111,238914,Y,Y,N
201411,385210,Y,Y,N
201312,286757,Y,Y,N
201009,238914,Y,N,N
200911,271750,Y,N,N
201011,279383,Y,Y,N
200804,385210,Y,N,N
201104,238914,Y,N,N
200812,252577,Y,N,N
201002,279383,Y,Y,N
200607,385210,Y,N,N
200603,385210,Y,N,N
200804,261633,Y,Y,N
201104,335488,Y,Y,N
200603,271750,Y,N,N
201503,271750,Y,N,N
200902,348612,Y,Y,N
201106,280265,Y,Y,N
201502,271750,Y,N,N
201207,252577,Y,Y,N
201408,271750,Y,N,N
200612,271750,Y,N,N
201301,335488,Y,Y,N
201410,252577,Y,N,N
200912,279383,Y,Y,N
200904,252577,Y,N,N
201212,286757,Y,Y,N
201004,385210,Y,Y,N
201407,286757,Y,Y,N
201304,335488,Y,N,N
201509,385210,Y,Y,N
201302,238914,Y,Y,N
201412,348612,Y,Y,N
200802,348612,Y,Y,N
201407,238914,Y,N,N
201408,280265,Y,Y,N
201101,286757,Y,N,N
200911,335488,Y,Y,N
200610,348612,Y,N,N
200801,348612,N,Y,N
201312,369450,Y,N,N
201005,385210,Y,Y,N
201004,407181,Y,Y,N
201202,238914,Y,Y,N
201103,335488,Y,Y,N
201104,286757,Y,Y,N
200608,385210,Y,N,N
201309,385210,Y,Y,N
201206,348612,Y,Y,N
201311,238914,Y,Y,N
201203,348612,Y,Y,N
201406,261633,Y,Y,N
201006,335488,Y,Y,N
201011,335488,Y,Y,N
200601,271750,Y,N,N
201210,271750,Y,N,N
201009,279383,Y,N,N
201209,261633,Y,Y,N
201305,279383,Y,N,N
201302,348612,Y,Y,N
201106,252577,Y,Y,N
201309,348612,Y,Y,N
200804,279383,Y,N,N
201110,385210,Y,Y,N
201307,238914,Y,Y,N
200812,279383,Y,N,N
201304,261633,Y,Y,N
201405,348612,Y,Y,N
200909,279383,Y,N,N
201308,238914,Y,Y,N
201511,252577,Y,N,N
201505,238914,Y,N,N
201306,252577,Y,Y,N
201409,252577,Y,N,N
201401,261633,Y,Y,N
201103,407181,Y,Y,N
201506,385210,Y,Y,N
201508,385210,Y,Y,N
201410,385210,Y,Y,N
200908,335488,Y,Y,N
201407,261633,Y,Y,N
201306,279383,Y,N,N
201506,261633,Y,Y,N
201212,271750,Y,N,N
201203,385210,Y,Y,N
200805,348612,Y,Y,N
200906,271750,Y,N,N
201307,252577,Y,Y,N
201401,238914,Y,Y,N
201511,279383,Y,N,N
201112,348612,Y,Y,N
200804,407181,Y,N,N
201306,369450,Y,N,N
201001,261633,Y,N,N
200907,348612,Y,Y,N
201110,279383,Y,Y,N
200810,348612,Y,N,N
201110,369450,Y,Y,N
201107,280265,Y,Y,N
201203,369450,Y,Y,N
201010,238914,Y,N,N
201303,348612,Y,Y,N
201112,271750,Y,N,N
201004,335488,Y,N,N
200803,348612,Y,Y,N
201310,385210,Y,Y,N
201311,335488,Y,Y,N
201105,238914,Y,Y,N
201307,286757,Y,Y,N
200806,348612,Y,Y,N
201507,280265,Y,N,N
201506,238914,Y,N,N
201204,286757,Y,Y,N
201311,261633,Y,Y,N
201201,279383,Y,Y,N
201504,261633,Y,Y,N
200704,271750,Y,N,N
201310,238914,Y,Y,N
201008,369450,Y,N,N
201206,252577,Y,Y,N
200811,271750,Y,N,N
201005,348612,Y,N,N
200809,279383,Y,N,N
201009,348612,Y,Y,N
201104,252577,Y,Y,N
200703,271750,Y,N,N
201307,335488,Y,Y,N
201508,280265,Y,Y,N
201202,286757,Y,Y,N
201510,271750,Y,Y,N
201002,348612,Y,N,N
200812,385210,Y,Y,N
201206,238914,Y,Y,N
201106,261633,Y,Y,N
201402,286757,Y,Y,N
200607,348612,N,Y,N
201503,407181,Y,Y,N
201307,280265,Y,Y,N
201104,261633,Y,Y,N
201301,279383,Y,N,N
201107,407181,Y,Y,N
200906,385210,Y,Y,N
201212,335488,Y,Y,N
201408,385210,Y,Y,N
200707,271750,Y,N,N
201011,271750,Y,Y,N
201203,335488,Y,Y,N
200707,348612,Y,N,N
201304,369450,Y,N,N
201012,261633,Y,Y,N
201312,280265,Y,Y,N
201006,369450,Y,N,N
201109,348612,Y,Y,N
201105,280265,Y,N,N
201311,348612,Y,Y,N
200805,261633,Y,Y,N
201112,279383,Y,Y,N
201501,279383,Y,N,N
201504,279383,Y,N,N
201009,252577,Y,Y,N
201305,335488,Y,Y,N
201103,348612,Y,Y,N
201401,335488,Y,N,N
201505,261633,Y,Y,N
201407,280265,Y,Y,N
201302,369450,Y,N,N
201404,279383,Y,Y,N
201408,261633,Y,Y,N
200806,407181,Y,N,N
201505,286757,Y,Y,N
200701,348612,Y,N,N
201406,385210,Y,Y,N
201003,335488,Y,N,N
201405,280265,Y,Y,N
201103,261633,Y,Y,N
200908,252577,Y,N,N
201108,279383,Y,N,N
200710,271750,Y,N,N
200901,407181,Y,N,N
201301,238914,Y,Y,N
201208,407181,Y,N,N
201010,261633,Y,Y,N
201102,238914,Y,N,N
201401,286757,Y,Y,N
201101,369450,Y,Y,N
201007,407181,Y,N,N
201502,407181,Y,Y,N
201110,252577,Y,Y,N
201501,261633,Y,N,N
201306,407181,Y,N,N
200604,385210,Y,N,N
201205,348612,Y,Y,N
201106,335488,Y,Y,N
201012,271750,Y,Y,N
201408,279383,Y,N,N
201307,385210,Y,Y,N
201205,407181,Y,Y,N
201305,385210,Y,Y,N
201508,407181,Y,Y,N
201201,286757,Y,Y,N
201102,348612,Y,Y,N
201112,335488,Y,Y,N
201411,407181,Y,Y,N
201005,279383,Y,Y,N
201109,261633,Y,N,N
201109,252577,Y,Y,N
201104,348612,Y,Y,N
201101,271750,Y,Y,N
201102,279383,Y,N,N
201105,385210,Y,Y,N
201108,271750,Y,N,N
201009,261633,Y,Y,N
201201,261633,Y,N,N
201510,252577,Y,N,N
201110,286757,Y,Y,N
201006,252577,Y,N,N
201305,407181,Y,N,N
201306,261633,Y,Y,N
201503,335488,Y,Y,N
201202,348612,Y,Y,N
201402,385210,Y,Y,N
201101,280265,Y,Y,N
200712,348612,N,Y,N
201503,286757,Y,Y,N
201207,385210,Y,Y,N
201008,335488,Y,Y,N
201205,385210,Y,Y,N
201503,385210,Y,Y,N
200905,335488,Y,Y,N
201403,335488,Y,Y,N
201505,252577,Y,N,N
201102,280265,Y,Y,N
200910,348612,Y,Y,N
201205,238914,Y,Y,N
201307,369450,Y,N,N
201501,280265,Y,N,N
201503,279383,Y,N,N
201303,369450,Y,N,N
201303,271750,Y,N,N
201208,369450,Y,Y,N
201006,385210,Y,Y,N
201208,286757,Y,Y,N
201302,286757,Y,Y,N
201207,238914,Y,Y,N
201110,280265,Y,N,N
201504,252577,Y,N,N
201208,335488,Y,Y,N
201205,335488,Y,Y,N
200808,261633,Y,N,N
201007,280265,Y,N,N
201107,348612,Y,Y,Y
201103,286757,Y,Y,N
201202,261633,Y,N,N
201302,407181,Y,Y,N
200705,261633,Y,N,N
201010,252577,Y,Y,N
200610,271750,Y,N,N
200611,271750,Y,N,N
201503,238914,Y,N,N
201303,238914,Y,Y,N
201501,286757,Y,Y,N
201411,252577,Y,Y,N
200911,252577,Y,N,N
201105,286757,Y,Y,N
201208,238914,Y,Y,N
201111,286757,Y,Y,N
200912,280265,Y,N,N
201101,252577,Y,Y,N
201008,252577,Y,Y,N
201412,385210,Y,Y,N
201406,238914,Y,N,N
201202,279383,Y,Y,N
200706,385210,Y,N,N
201105,261633,Y,Y,N
201109,286757,Y,Y,N
201308,385210,Y,Y,N
201510,335488,Y,N,N
200909,385210,Y,Y,N
201312,261633,Y,Y,N
201103,280265,Y,Y,N
201409,385210,Y,Y,N
200902,252577,Y,N,N
201311,252577,Y,Y,N
201307,271750,Y,N,N
200906,407181,Y,N,N
201312,279383,Y,N,N
200609,348612,Y,Y,N
201405,286757,Y,Y,N
201506,280265,Y,N,N
201006,407181,Y,Y,N
201505,279383,Y,N,N
201512,286757,Y,Y,N
201003,407181,Y,N,N
200708,279383,Y,N,N
201009,271750,Y,N,N
201104,279383,Y,Y,N
201401,279383,Y,N,N
200904,385210,Y,N,N
201001,271750,Y,N,N
200910,280265,Y,N,N
201204,369450,Y,Y,N
201406,407181,Y,N,N
201201,348612,Y,Y,N
200805,385210,Y,N,N
201303,280265,Y,N,N
201402,238914,Y,Y,N
201410,335488,Y,Y,N
200904,335488,Y,Y,N
201504,385210,Y,Y,N
200908,261633,Y,N,N
201106,348612,Y,Y,Y
201512,271750,Y,N,N
201303,279383,Y,N,N
200701,271750,Y,N,N
201012,348612,Y,Y,N
201112,286757,Y,Y,N
200910,279383,Y,N,N
200907,261633,Y,N,N
201512,280265,Y,N,N
200910,407181,Y,N,N
201201,238914,Y,Y,N
200903,335488,Y,Y,N
200711,348612,Y,N,N
200811,348612,Y,N,N
201508,279383,Y,N,N
201505,407181,Y,Y,N
201412,238914,Y,N,N
201502,385210,Y,Y,N
201403,261633,Y,N,N
201005,252577,Y,N,N
201012,335488,Y,N,N
201412,407181,Y,Y,N
201501,335488,Y,Y,N
201111,385210,Y,Y,N
200903,252577,Y,N,N
201102,335488,Y,Y,N
201312,385210,Y,Y,N
201511,407181,Y,Y,N
201212,369450,Y,Y,N
200803,261633,Y,Y,N
201108,252577,Y,Y,N
200712,385210,Y,N,N
200911,385210,Y,Y,N
201112,369450,Y,Y,N
200808,407181,Y,N,N
201303,252577,Y,Y,N
201502,335488,Y,Y,N
201308,252577,Y,Y,N
200908,271750,Y,Y,N
201206,407181,Y,Y,N
201109,385210,Y,Y,N
201505,335488,Y,Y,N
201512,279383,Y,N,N
201110,271750,Y,N,N
201306,271750,Y,N,N
201110,261633,Y,N,N
201509,261633,Y,Y,N
200808,385210,Y,N,N
200608,271750,Y,N,N
200702,271750,Y,N,N
201309,369450,Y,Y,N
201210,279383,Y,N,N
201310,335488,Y,Y,N
200903,348612,Y,N,N
200712,279383,Y,N,N
201111,369450,Y,Y,N
200704,348612,Y,N,N
201408,407181,Y,Y,N
201512,261633,Y,Y,N
201208,385210,Y,Y,N
201504,335488,Y,Y,N
201107,261633,Y,N,N
201506,271750,Y,N,N
200903,407181,Y,N,N
200803,279383,Y,N,N
201206,369450,Y,Y,N
200911,279383,Y,N,N
201407,407181,Y,N,N
200906,335488,Y,Y,N
200912,252577,Y,N,N
200807,261633,Y,N,N
201512,385210,Y,Y,N
201009,280265,Y,N,N
201304,407181,Y,N,N
201409,238914,Y,N,N
201111,271750,Y,N,N
200705,348612,Y,N,N
201403,271750,Y,N,N
201510,238914,Y,N,N
201207,407181,Y,Y,N
201506,407181,Y,Y,N
201411,280265,Y,Y,N
201507,261633,Y,Y,N
201004,252577,Y,N,N
200803,385210,Y,N,N
201512,238914,Y,N,N
200909,335488,Y,Y,N
201108,286757,Y,Y,N
200705,271750,Y,N,N
201408,286757,Y,Y,N
201102,261633,Y,Y,N
201004,261633,Y,N,N
201101,407181,Y,N,N
201407,252577,Y,Y,N
200709,279383,Y,N,N
201306,335488,Y,Y,N
200708,271750,Y,N,N
200810,252577,Y,N,N
201205,261633,Y,N,N
201301,252577,Y,Y,N
201209,238914,Y,Y,N
201205,286757,Y,Y,N
201211,238914,Y,Y,N
200605,385210,Y,N,N
201010,271750,Y,N,N
201405,261633,Y,N,N
201305,252577,Y,Y,N
201512,335488,Y,N,N
201407,348612,Y,Y,N
201111,261633,Y,N,N
201105,335488,Y,Y,N
200810,385210,Y,Y,N
201209,286757,Y,Y,N
201504,271750,Y,N,N
200810,271750,Y,N,N
201105,407181,Y,Y,N
201109,335488,Y,N,N
201401,252577,Y,Y,N
201406,280265,Y,Y,N
201108,238914,Y,Y,N
200702,261633,Y,N,N
200803,271750,Y,N,N
201211,280265,Y,Y,N
201207,279383,Y,N,N
201111,280265,Y,N,N
201309,407181,Y,N,N
201501,252577,Y,Y,N
201201,385210,Y,Y,N
201106,279383,Y,Y,N
200806,261633,Y,N,N
201209,280265,Y,N,N
200909,271750,Y,Y,N
201410,238914,Y,N,N
201308,280265,Y,N,N
201509,252577,Y,N,N
201008,280265,Y,N,N
201312,335488,Y,N,N
201303,335488,Y,N,N
200905,261633,Y,N,N
201408,335488,Y,Y,N
201209,252577,Y,Y,N
201202,369450,Y,Y,N
201104,407181,Y,Y,N
200806,385210,Y,N,N
201202,407181,Y,N,N
200912,261633,Y,N,N
201303,286757,Y,Y,N
200612,261633,Y,N,N
200910,261633,Y,N,N
200811,407181,Y,N,N
201308,369450,Y,Y,N
201511,335488,Y,N,N
200605,252577,Y,N,N
201108,369450,Y,Y,N
201002,261633,Y,N,N
201507,335488,Y,N,N
201204,261633,Y,N,N
201109,369450,Y,Y,N
201202,280265,Y,N,N
200607,271750,Y,N,N
201012,279383,Y,Y,N
200912,271750,Y,N,N
201111,348612,Y,Y,N
201003,348612,Y,N,N
200811,279383,Y,N,N
200902,271750,Y,N,N
201201,407181,Y,N,N
201403,385210,Y,Y,N
201412,335488,Y,Y,N
201405,335488,Y,N,N
200811,261633,Y,N,N
201309,252577,Y,Y,N
200905,407181,Y,N,N
201510,280265,Y,Y,N
201109,280265,Y,N,N
200602,271750,Y,N,N
201301,407181,Y,Y,N
201205,280265,Y,N,N
200709,348612,Y,N,N
201309,261633,Y,Y,N
201404,271750,Y,N,N
201010,369450,Y,N,N
201412,286757,Y,Y,N
201406,348612,Y,Y,N
200608,348612,Y,Y,N
200805,279383,Y,N,N
201310,407181,Y,N,N
201401,407181,Y,N,N
201004,271750,Y,N,N
201406,335488,Y,N,N
201404,348612,Y,Y,N
201210,369450,Y,Y,N
201403,286757,Y,Y,N
201112,407181,Y,N,N
200702,385210,Y,Y,N
201312,238914,Y,Y,N
201007,335488,Y,Y,N
201401,271750,Y,N,N
201212,407181,Y,N,N
201311,271750,Y,N,N
200603,252577,Y,N,N
201008,261633,Y,Y,N
201404,286757,Y,Y,N
200809,407181,Y,N,N
201107,252577,Y,Y,N
200602,385210,Y,N,N
201406,286757,Y,Y,N
200812,261633,Y,N,N
200706,271750,Y,N,N
201201,280265,Y,N,N
201305,280265,Y,Y,N
201302,335488,Y,N,N
201302,261633,Y,N,N
201411,286757,Y,Y,N
200808,348612,Y,N,N
200604,252577,Y,N,N
201101,238914,Y,N,N
201310,369450,Y,Y,N
200806,271750,Y,N,N
200902,385210,Y,N,N
201203,286757,Y,Y,N
201301,271750,Y,N,N
201107,271750,Y,N,N
201003,369450,Y,N,N
201006,348612,Y,Y,N
200901,385210,Y,N,N
201211,271750,Y,N,N
201206,286757,Y,Y,N
201105,348612,Y,Y,N
200904,261633,Y,N,N
200710,385210,Y,N,N
201401,348612,Y,Y,N
201412,271750,Y,N,N
201211,369450,Y,Y,N
201506,286757,Y,Y,N
201303,385210,Y,Y,N
200910,271750,Y,Y,N
201412,279383,Y,N,N
201503,252577,Y,N,N
201309,238914,Y,Y,N
201407,271750,Y,N,N
201305,348612,Y,Y,N
201504,286757,Y,Y,N
201102,369450,Y,Y,N
201212,385210,Y,Y,N
201101,348612,Y,Y,N
201207,348612,Y,Y,N
201303,407181,Y,Y,N
201406,279383,Y,N,N
201111,335488,Y,Y,N
201210,348612,Y,Y,N
201307,261633,Y,N,N
201405,279383,Y,N,N
200802,261633,Y,N,N
201304,385210,Y,Y,N
201308,279383,Y,N,N
201209,385210,Y,Y,N
201209,271750,Y,N,N
201208,261633,Y,Y,N
201209,279383,Y,N,N
200807,407181,Y,N,N
201301,286757,Y,Y,N
200610,252577,Y,N,N
201409,335488,Y,Y,N
200604,271750,Y,N,N
201210,238914,Y,Y,N
201402,271750,Y,N,N
200706,261633,Y,N,N
201406,271750,Y,N,N
201210,407181,Y,N,N
201006,279383,Y,Y,N
201212,261633,Y,N,N
201509,407181,Y,Y,N
200808,252577,Y,N,N
200611,252577,Y,N,N
201008,271750,Y,N,N
201009,385210,Y,Y,N
201302,279383,Y,N,N
200804,271750,Y,N,N
201211,385210,Y,Y,N
201503,280265,Y,N,N
201005,261633,Y,N,N
200712,261633,Y,N,N
201404,238914,Y,N,N
201011,238914,Y,N,N
201403,280265,Y,N,N
201211,335488,Y,Y,N
201110,348612,Y,Y,N
201301,280265,Y,N,N
201504,238914,Y,N,N
201005,335488,Y,Y,N
201403,279383,Y,Y,N
201410,407181,Y,Y,N
201108,335488,Y,Y,N
201009,335488,Y,Y,N
201508,335488,Y,N,N
200910,335488,Y,Y,N
201112,238914,Y,Y,N
201005,271750,Y,N,N
201502,252577,Y,N,N
200706,348612,Y,N,N
201203,252577,Y,Y,N
201207,369450,Y,Y,N
201509,271750,Y,Y,N
201012,252577,Y,N,N
201409,271750,Y,N,N
201209,369450,Y,Y,N
201003,385210,Y,Y,N
201001,279383,Y,Y,N
200905,348612,Y,Y,N
200809,385210,Y,N,N
201101,385210,Y,Y,N
200802,271750,Y,N,N
201108,407181,Y,Y,N
201509,286757,Y,Y,N
201008,238914,Y,N,N
201506,335488,Y,Y,N
200809,271750,Y,N,N
201406,252577,Y,Y,N
201207,286757,Y,Y,N
200709,261633,Y,N,N
201301,369450,Y,Y,N
200603,261633,Y,N,N
201202,252577,Y,Y,N
201405,407181,Y,N,N
201003,252577,Y,N,N
201010,280265,Y,N,N
201207,261633,Y,Y,N
201210,252577,Y,Y,N
201410,348612,Y,Y,N
201310,252577,Y,Y,N
201408,252577,Y,N,N
200710,279383,Y,N,N
201205,279383,Y,N,N
200903,279383,Y,Y,N
200902,261633,Y,N,N
201203,261633,Y,N,N
201011,407181,Y,N,N
200606,385210,Y,N,N
201508,252577,Y,N,N
200610,385210,Y,N,N
201408,348612,Y,Y,N
201302,252577,Y,Y,N
200909,348612,Y,Y,N
200807,279383,Y,N,N
201408,238914,Y,N,N
200811,385210,Y,Y,N
201402,279383,Y,Y,N
201501,348612,Y,Y,N
201501,385210,Y,Y,N
201511,385210,Y,Y,N
201207,335488,Y,Y,N
201210,286757,Y,Y,N
201512,407181,Y,Y,N
201302,271750,Y,N,N
201509,279383,Y,N,N
201403,407181,Y,N,N
201501,238914,Y,N,N
201206,280265,Y,N,N
201301,348612,Y,Y,N
201306,238914,Y,Y,N
200609,385210,Y,N,N
200810,279383,Y,N,N
201407,385210,Y,Y,N
201106,369450,Y,Y,N
201003,279383,Y,N,N
200907,385210,Y,Y,N
201407,279383,Y,N,N
200812,407181,Y,N,N
201204,348612,Y,Y,N
201012,385210,Y,Y,N
201004,348612,Y,N,N
201201,271750,Y,N,N
200805,271750,Y,N,N
201505,385210,Y,Y,N
201002,271750,Y,N,N
201403,252577,Y,N,N
201006,261633,Y,N,N
201303,261633,Y,N,N
201504,280265,Y,N,N
201104,385210,Y,Y,N
201006,271750,Y,N,N
201302,385210,Y,Y,N
200709,271750,Y,N,N
201510,261633,Y,Y,N
200908,279383,Y,N,N
201004,279383,Y,Y,N
201103,271750,Y,N,N
201206,271750,Y,N,N
200909,252577,Y,N,N
200907,252577,Y,N,N
201309,280265,Y,N,N
201012,407181,Y,N,N
201304,279383,Y,N,N
201411,348612,Y,Y,N
201404,261633,Y,N,N
201107,238914,Y,Y,N
200902,407181,Y,N,N
201102,407181,Y,Y,N
201103,238914,Y,N,N
201306,348612,Y,Y,N
200905,385210,Y,Y,N
200712,271750,Y,N,N
201212,252577,Y,Y,N
201206,261633,Y,N,N
200901,335488,Y,N,N
201211,261633,Y,N,N
200908,348612,Y,Y,N
201007,261633,Y,Y,N
201103,369450,Y,Y,N
201511,261633,Y,Y,N
200907,279383,Y,N,N
201310,279383,Y,N,N
201211,252577,Y,Y,N
201310,280265,Y,Y,N
201405,252577,Y,Y,N
200811,252577,Y,N,N
201311,385210,Y,Y,N
201102,252577,Y,Y,N
200905,271750,Y,N,N
201001,252577,Y,N,N
201107,385210,Y,Y,N
201108,348612,Y,Y,Y
201112,261633,Y,N,N
200907,335488,Y,Y,N
201305,286757,Y,Y,N
201112,280265,Y,N,N
201108,385210,Y,Y,N
201105,252577,Y,Y,N
201202,271750,Y,N,N
200807,271750,Y,N,N
201509,335488,Y,N,N
201011,369450,Y,Y,N
201105,369450,Y,Y,N
201509,238914,Y,N,N
200804,348612,Y,Y,N
200707,261633,Y,N,N
201212,280265,Y,Y,N
201502,261633,Y,N,N
201106,286757,Y,Y,N
201203,279383,Y,N,N
200705,385210,Y,N,N
201403,238914,Y,N,N
201007,271750,Y,N,N
201402,280265,Y,N,N
201007,238914,Y,N,N
201312,252577,Y,Y,N
201101,335488,Y,N,N
200810,261633,Y,N,N
201304,280265,Y,N,N
201012,369450,Y,Y,N
201508,286757,Y,Y,N
201204,271750,Y,N,N
200904,279383,Y,Y,N
201311,369450,Y,N,N
201207,271750,Y,N,N
201410,271750,Y,N,N
201007,279383,Y,N,N
200906,348612,Y,Y,N
201204,238914,Y,Y,N
201012,280265,Y,Y,N
201405,271750,Y,N,N
201510,385210,Y,Y,N
201308,286757,Y,Y,N
200606,271750,Y,N,N
201511,271750,Y,Y,N
201111,279383,Y,Y,N
201310,286757,Y,Y,N
201309,286757,Y,Y,N
201002,335488,Y,N,N
200808,271750,Y,N,N
200708,348612,Y,N,N
201502,238914,Y,N,N
201402,252577,Y,Y,N
201011,348612,Y,Y,N
200604,261633,Y,N,N
201107,335488,Y,Y,N
201105,279383,Y,Y,N
201402,407181,Y,N,N
200711,279383,Y,N,N
201010,279383,Y,Y,N
201209,335488,Y,Y,N
201109,238914,Y,Y,N
201309,271750,Y,N,N
201202,385210,Y,Y,N
201106,407181,Y,Y,N
200601,385210,Y,N,N
201507,271750,Y,N,N
201502,280265,Y,N,N
201409,348612,Y,Y,N
201306,280265,Y,Y,N
201404,252577,Y,Y,N
201208,279383,Y,N,N
201502,286757,Y,Y,N
201105,271750,Y,Y,N
201210,385210,Y,Y,N
201509,280265,Y,Y,N
201402,335488,Y,Y,N
200704,385210,Y,N,N
201404,407181,Y,N,N
200901,252577,Y,N,N
201102,271750,Y,N,N
200803,407181,Y,N,N
201107,286757,Y,Y,N
200612,348612,Y,N,N
201410,280265,Y,Y,N
200709,385210,Y,N,N
201205,369450,Y,Y,N
201511,280265,Y,N,N
201205,252577,Y,Y,N
200605,271750,Y,N,N
200901,261633,Y,N,N
201104,271750,Y,Y,N
201304,286757,Y,Y,N
201010,407181,Y,N,N
201307,348612,Y,Y,N
200802,385210,Y,N,N
201011,280265,Y,N,N
201104,369450,Y,Y,N
201501,271750,Y,N,N
201206,335488,Y,Y,N
201410,279383,Y,N,N
200806,279383,Y,N,N
201409,286757,Y,Y,N
201401,280265,Y,Y,N
200901,271750,Y,N,N
201506,252577,Y,N,N
201411,279383,Y,N,N
201304,252577,Y,Y,N
201101,279383,Y,Y,N
201504,407181,Y,Y,N
201009,369450,Y,N,N
200612,385210,Y,Y,N
201106,385210,Y,Y,N
201404,335488,Y,Y,N
201306,385210,Y,Y,N
201112,252577,Y,Y,N
200801,261633,Y,N,N
201010,335488,Y,Y,N
201103,252577,Y,Y,N
201208,252577,Y,Y,N
201208,271750,Y,N,N
201302,280265,Y,N,N
201003,261633,Y,N,N
200812,348612,Y,Y,N
201301,261633,Y,N,N
201010,385210,Y,Y,N
201409,280265,Y,N,N
201305,238914,Y,Y,N
201108,280265,Y,Y,N
201305,271750,Y,N,N
201008,407181,Y,N,N
201003,271750,Y,N,N
201202,335488,Y,Y,N
200807,348612,Y,Y,N
201209,348612,Y,Y,N
200807,385210,Y,N,N
200905,279383,Y,N,N
201011,385210,Y,Y,N
201411,261633,Y,N,N
201410,286757,Y,Y,N
200701,385210,Y,Y,N
200911,280265,Y,N,N
201505,271750,Y,N,N
201005,369450,Y,N,N
201110,335488,Y,Y,N
201402,261633,Y,N,N
201306,286757,Y,Y,N
201201,252577,Y,Y,N
201203,407181,Y,N,N
201305,261633,Y,Y,N
200911,348612,Y,N,N
201106,271750,Y,Y,N
200904,271750,Y,N,N
201308,271750,Y,N,N
201508,261633,Y,Y,N
200703,348612,Y,N,N
201311,286757,Y,Y,N
201305,369450,Y,N,N
201312,407181,Y,N,N
201311,280265,Y,Y,N
201109,407181,Y,N,N
201007,348612,Y,Y,N
200911,407181,Y,N,N
200809,252577,Y,N,N
200801,271750,Y,N,N
201312,271750,Y,N,N
200912,385210,Y,Y,N
201204,335488,Y,Y,N
200602,261633,Y,N,N
201112,385210,Y,Y,N
201005,407181,Y,Y,N
201404,280265,Y,N,N
201007,385210,Y,Y,N
201508,238914,Y,N,N
201201,335488,Y,N,N
200708,385210,Y,N,N
200909,407181,Y,N,N
201401,385210,Y,Y,N
200605,261633,Y,N,N
201102,385210,Y,Y,N
201203,238914,Y,Y,N
200906,261633,Y,N,N
201403,348612,Y,Y,N
201001,385210,Y,Y,N
201011,261633,Y,N,N
201308,407181,Y,N,N
200711,385210,Y,N,N
200903,271750,Y,N,N
200805,407181,Y,N,N
200801,385210,Y,N,N
201210,280265,Y,Y,N
200810,407181,Y,N,N
201309,335488,Y,Y,N
200606,252577,Y,N,N
201205,271750,Y,N,N
200611,348612,Y,N,N
200812,271750,Y,N,N
200907,407181,Y,N,N
200703,385210,Y,N,N
201103,385210,Y,Y,N
200602,252577,Y,N,N
200908,385210,Y,Y,N
201411,271750,Y,N,N
201008,279383,Y,N,N
201405,238914,Y,N,N
201203,280265,Y,N,N
201507,252577,Y,N,N
200904,407181,Y,N,N
201211,286757,Y,Y,N
201104,280265,Y,N,N
201511,286757,Y,Y,N
201111,407181,Y,N,N
201208,280265,Y,N,N
201101,261633,Y,Y,N
201109,279383,Y,Y,N
201311,407181,Y,N,N
201507,286757,Y,Y,N
200901,348612,Y,Y,N
200711,271750,Y,N,N
201009,407181,Y,N,N
201304,238914,Y,Y,N
200902,279383,Y,Y,N
201308,261633,Y,Y,N
201501,407181,Y,Y,N
201011,252577,Y,N,N
200908,407181,Y,N,N
200701,261633,Y,N,N
201410,261633,Y,Y,N
201304,348612,Y,Y,N
200902,335488,Y,N,N
201505,280265,Y,N,N
201405,385210,Y,Y,N
201507,385210,Y,Y,N
201006,238914,Y,N,N
201109,271750,Y,N,N
201103,279383,Y,Y,N
201012,238914,Y,N,N
201308,348612,Y,Y,N
201212,238914,Y,Y,N
201402,348612,Y,Y,N
200903,261633,Y,N,N
201203,271750,Y,N,N
201411,335488,Y,Y,N
201206,385210,Y,Y,N
200708,261633,Y,N,N
201412,261633,Y,N,N
201008,348612,Y,Y,N
200911,261633,Y,N,N
201503,261633,Y,N,N
201102,286757,Y,Y,N
201107,369450,Y,N,N
200802,407181,Y,N,N
201111,252577,Y,Y,N
