E030,ICD9,Y939
E8020,ICD9,V159XXA
E8021,ICD9,V817XXA
E8029,ICD9,V817XXA
E8300,ICD9,V9089XA
E8301,ICD9,V9089XA
E8309,ICD9,V9089XA
E8310,ICD9,V9189XA
E8319,ICD9,V9189XA
E8330,ICD9,V9338XA
E8331,ICD9,V9333XA
E8332,ICD9,V9339XA
E8339,ICD9,V9339XA
E8340,ICD9,V9338XA
E8341,ICD9,V9333XA
E8342,ICD9,V9339XA
E8349,ICD9,V9339XA
E8350,ICD9,V9338XA
E8351,ICD9,V9333XA
E8352,ICD9,V9339XA
E8359,ICD9,V9339XA
E8381,ICD9,V9422XA
E8389,ICD9,V9489XA
E8411,ICD9,V97818A
E8419,ICD9,V9739XA
E848,ICD9,V988XXA
E851,ICD9,Y387X3D
E8801,ICD9,W101XXA
E8809,ICD9,W108XXA
E882,ICD9,W139XXA
E8840,ICD9,W098XXA
E8841,ICD9,W15XXXA
E8842,ICD9,W07XXXA
E8849,ICD9,W1789XA
E8881,ICD9,W01198A
E8889,ICD9,W19XXXA
E892,ICD9,X018XXA
E895,ICD9,X028XXA
E896,ICD9,X028XXA
